_req(acct2301,none).
_req(acct2302,none).
_req(acct3100,none).
_req(acct3101,none).
_req(acct3320,none).
_req(acct3322,none).
_req(acct3331,none).
_req(acct3332,none).
_req(acct3341,none).
_req(acct3350,none).
_req(acct4080,none).
_req(acct4090,none).
_req(acct4199,none).
_req(acct4299,none).
_req(acct4300,none).
_req(acct4301,none).
_req(acct4334,none).
_req(acct4336,none).
_req(acct4337,none).
_req(acct4340,none).
_req(acct4342,none).
_req(acct4365,none).
_req(acct4380,none).
_req(acct4389,none).
_req(acct4V00,none).
_req(acct4V80,none).
_req(acts4301,none).
_req(acts4302,none).
_req(acts4304,none).
_req(acts4306,none).
_req(acts4308,none).
_req(ahst2V71,none).
_req(ams2311,none).
_req(ams2312,none).
_req(ams2390,none).
_req(ams3300,none).
_req(ams3302,none).
_req(ams3313,none).
_req(ams3314,none).
_req(ams3316,none).
_req(ams3321,none).
_req(ams3322,none).
_req(ams3326,none).
_req(ams3350,none).
_req(ams3374,none).
_req(ams4300,none).
_req(ams4304,none).
_req(ams4305,none).
_req(ams4326,none).
_req(ams4327,none).
_req(ams4360,none).
_req(ams4379,none).
_req(ams4381,none).
_req(ams4385,none).
_req(ams4V80,none).
_req(ap2V71,none).
_req(ap3300,none).
_req(ap3340,none).
_req(ap4V71,none).
_req(ap4V99,none).
_req(arab1311,none).
_req(arab1312,none).
_req(arab2311,none).
_req(arab2312,none).
_req(arhm1100,none).
_req(arhm2V71,none).
_req(arhm3100,none).
_req(arhm3342,none).
_req(arhm4V71,none).
_req(arts1303,none).
_req(arts1304,none).
_req(arts1311,none).
_req(arts1312,none).
_req(arts2315,none).
_req(arts2316,none).
_req(arts2350,none).
_req(arts2380,none).
_req(arts2381,none).
_req(arts2382,none).
_req(arts2V71,none).
_req(arts3311,none).
_req(arts3313,none).
_req(arts3340,none).
_req(arts3341,none).
_req(arts3363,none).
_req(arts3365,none).
_req(arts3366,none).
_req(arts3367,none).
_req(arts3368,none).
_req(arts3369,none).
_req(arts3373,none).
_req(arts3375,none).
_req(arts3376,none).
_req(arts3378,none).
_req(arts3381,none).
_req(arts3382,none).
_req(arts4308,none).
_req(arts4310,none).
_req(arts4366,none).
_req(arts4369,none).
_req(arts4372,none).
_req(arts4V71,none).
_req(atec2320,none).
_req(atec2321,none).
_req(atec2322,none).
_req(atec2324,none).
_req(atec2325,none).
_req(atec2331,none).
_req(atec2385,none).
_req(atec3310,none).
_req(atec3312,none).
_req(atec3319,none).
_req(atec3324,none).
_req(atec3326,none).
_req(atec3331,none).
_req(atec3332,none).
_req(atec3334,none).
_req(atec3335,none).
_req(atec3338,none).
_req(atec3339,none).
_req(atec3346,none).
_req(atec3351,none).
_req(atec3352,none).
_req(atec3353,none).
_req(atec3354,none).
_req(atec3355,none).
_req(atec3356,none).
_req(atec3361,none).
_req(atec3363,none).
_req(atec3364,none).
_req(atec3365,none).
_req(atec4310,none).
_req(atec4312,none).
_req(atec4324,none).
_req(atec4325,none).
_req(atec4326,none).
_req(atec4329,none).
_req(atec4330,none).
_req(atec4337,none).
_req(atec4340,none).
_req(atec4341,none).
_req(atec4346,none).
_req(atec4347,none).
_req(atec4350,none).
_req(atec4353,none).
_req(atec4357,none).
_req(atec4361,none).
_req(atec4363,none).
_req(atec4365,none).
_req(atec4367,none).
_req(atec4368,none).
_req(atec4373,none).
_req(atec4374,none).
_req(atec4375,none).
_req(atec4381,none).
_req(atec4399,none).
_req(atec4V71,none).
_req(atec4V99,none).
_req(atem1100,none).
_req(ba1100,none).
_req(ba3100,none).
_req(ba4010,none).
_req(ba4090,none).
_req(ba4101,none).
_req(ba4199,none).
_req(ba4299,none).
_req(ba4V00,none).
_req(ba4V10,none).
_req(ba4V90,none).
_req(bcom2101,none).
_req(bcom3100,none).
_req(bcom3310,none).
_req(bcom3311,none).
_req(bcom3320,none).
_req(bcom3321,none).
_req(bcom3322,none).
_req(bcom3323,none).
_req(bcom4310,none).
_req(bcom4350,none).
_req(biol1306,none).
_req(biol1307,none).
_req(biol1310,none).
_req(biol1320,none).
_req(biol1V00,none).
_req(biol1V01,none).
_req(biol1V95,none).
_req(biol2111,none).
_req(biol2112,none).
_req(biol2281,none).
_req(biol2316,none).
_req(biol2320,none).
_req(biol2V00,none).
_req(biol2V01,none).
_req(biol2V95,none).
_req(biol3101,none).
_req(biol3102,none).
_req(biol3110,none).
_req(biol3161,none).
_req(biol3162,none).
_req(biol3301,none).
_req(biol3302,none).
_req(biol3305,none).
_req(biol3310,none).
_req(biol3318,none).
_req(biol3321,none).
_req(biol3335,none).
_req(biol3336,none).
_req(biol3350,none).
_req(biol3351,none).
_req(biol3355,none).
_req(biol3361,none).
_req(biol3362,none).
_req(biol3370,none).
_req(biol3371,none).
_req(biol3380,none).
_req(biol3388,none).
_req(biol3455,none).
_req(biol3456,none).
_req(biol3520,none).
_req(biol3V00,none).
_req(biol3V01,none).
_req(biol3V15,none).
_req(biol3V20,none).
_req(biol3V40,none).
_req(biol3V81,none).
_req(biol3V82,none).
_req(biol3V83,none).
_req(biol3V84,none).
_req(biol3V90,none).
_req(biol3V91,none).
_req(biol3V92,none).
_req(biol3V93,none).
_req(biol3V94,none).
_req(biol3V95,none).
_req(biol3V96,none).
_req(biol4261,none).
_req(biol4302,none).
_req(biol4308,none).
_req(biol4310,none).
_req(biol4315,none).
_req(biol4316,none).
_req(biol4317,none).
_req(biol4320,none).
_req(biol4324,none).
_req(biol4332,none).
_req(biol4333,none).
_req(biol4336,none).
_req(biol4337,none).
_req(biol4338,none).
_req(biol4340,none).
_req(biol4341,none).
_req(biol4342,none).
_req(biol4345,none).
_req(biol4350,none).
_req(biol4352,none).
_req(biol4353,none).
_req(biol4355,none).
_req(biol4356,none).
_req(biol4360,none).
_req(biol4365,none).
_req(biol4366,none).
_req(biol4370,none).
_req(biol4371,none).
_req(biol4375,none).
_req(biol4380,none).
_req(biol4382,none).
_req(biol4385,none).
_req(biol4390,none).
_req(biol4391,none).
_req(biol4398,none).
_req(biol4399,none).
_req(biol4461,none).
_req(biol4V00,none).
_req(biol4V01,none).
_req(biol4V04,none).
_req(biol4V40,none).
_req(biol4V51,none).
_req(biol4V95,none).
_req(biol4V98,none).
_req(biol4V99,none).
_req(bis1100,none).
_req(bis2V90,none).
_req(bis3150,none).
_req(bis3190,none).
_req(bis3250,none).
_req(bis3310,none).
_req(bis3320,none).
_req(bis3V03,none).
_req(bis4303,none).
_req(bis4305,none).
_req(bis4306,none).
_req(bis4310,none).
_req(bis4V01,none).
_req(bis4V02,none).
_req(bis4V04,none).
_req(blaw2301,none).
_req(blaw3301,none).
_req(blaw4301,none).
_req(blaw4305,none).
_req(blaw4310,none).
_req(bmen1100,none).
_req(bmen1208,none).
_req(bmen2310,none).
_req(bmen2320,none).
_req(bmen2330,none).
_req(bmen2340,none).
_req(bmen2V99,none).
_req(bmen3101,none).
_req(bmen3110,none).
_req(bmen3120,none).
_req(bmen3130,none).
_req(bmen3150,none).
_req(bmen3170,none).
_req(bmen3301,none).
_req(bmen3310,none).
_req(bmen3315,none).
_req(bmen3320,none).
_req(bmen3325,none).
_req(bmen3330,none).
_req(bmen3350,none).
_req(bmen3360,none).
_req(bmen3370,none).
_req(bmen3380,none).
_req(bmen3399,none).
_req(bmen3V99,none).
_req(bmen4110,none).
_req(bmen4310,none).
_req(bmen4320,none).
_req(bmen4330,none).
_req(bmen4342,none).
_req(bmen4350,none).
_req(bmen4360,none).
_req(bmen4388,none).
_req(bmen4389,none).
_req(bmen4399,none).
_req(bmen4V95,none).
_req(bmen4V97,none).
_req(bmen4V98,none).
_req(bps4305,none).
_req(bps4307,none).
_req(busi2301,none).
_req(ce1100,none).
_req(ce1200,none).
_req(ce1202,none).
_req(ce1337,none).
_req(ce2305,none).
_req(ce2310,none).
_req(ce2336,none).
_req(ce2V99,none).
_req(ce3101,none).
_req(ce3102,none).
_req(ce3110,none).
_req(ce3111,none).
_req(ce3120,none).
_req(ce3301,none).
_req(ce3302,none).
_req(ce3307,none).
_req(ce3310,none).
_req(ce3311,none).
_req(ce3320,none).
_req(ce3345,none).
_req(ce3346,none).
_req(ce3354,none).
_req(ce4304,none).
_req(ce4337,none).
_req(ce4348,none).
_req(ce4370,none).
_req(ce4372,none).
_req(ce4388,none).
_req(ce4389,none).
_req(ce4390,none).
_req(ce4399,none).
_req(ce4V95,none).
_req(ce4V97,none).
_req(ce4V98,none).
_req(cgs1100,none).
_req(cgs3325,none).
_req(cgs3340,none).
_req(cgs3342,none).
_req(cgs3361,none).
_req(cgs4188,none).
_req(cgs4312,none).
_req(cgs4313,none).
_req(cgs4314,none).
_req(cgs4315,none).
_req(cgs4352,none).
_req(cgs4353,none).
_req(cgs4355,none).
_req(cgs4359,none).
_req(cgs4362,none).
_req(cgs4364,none).
_req(cgs4375,none).
_req(cgs4385,none).
_req(cgs4386,none).
_req(cgs4389,none).
_req(cgs4394,none).
_req(cgs4395,none).
_req(cgs4397,none).
_req(cgs4V90,none).
_req(cgs4V96,none).
_req(cgs4V98,none).
_req(cgs4V99,none).
_req(chem1111,none).
_req(chem1112,none).
_req(chem1115,none).
_req(chem1116,none).
_req(chem1301,none).
_req(chem2123,none).
_req(chem2125,none).
_req(chem2127,none).
_req(chem2128,none).
_req(chem2130,none).
_req(chem2323,none).
_req(chem2324,none).
_req(chem2325,none).
_req(chem2327,none).
_req(chem2328,none).
_req(chem2330,none).
_req(chem2401,none).
_req(chem2V01,none).
_req(chem3321,none).
_req(chem3322,none).
_req(chem3341,none).
_req(chem3361,none).
_req(chem3362,none).
_req(chem3471,none).
_req(chem3472,none).
_req(chem3V92,none).
_req(chem4335,none).
_req(chem4355,none).
_req(chem4381,none).
_req(chem4390,none).
_req(chem4399,none).
_req(chem4473,none).
_req(chem4V01,none).
_req(chem4V91,none).
_req(chin1311,none).
_req(chin1312,none).
_req(chin2311,none).
_req(chin2312,none).
_req(chin3365,none).
_req(cldp1100,none).
_req(cldp3303,none).
_req(cldp3305,none).
_req(cldp3310,none).
_req(cldp3332,none).
_req(cldp3336,none).
_req(cldp3338,none).
_req(cldp3339,none).
_req(cldp3342,none).
_req(cldp3343,none).
_req(cldp3362,none).
_req(cldp3365,none).
_req(cldp3366,none).
_req(cldp3394,none).
_req(cldp3494,none).
_req(cldp4188,none).
_req(cldp4308,none).
_req(cldp4334,none).
_req(cldp4344,none).
_req(cldp4345,none).
_req(cldp4347,none).
_req(cldp4375,none).
_req(cldp4389,none).
_req(cldp4394,none).
_req(cldp4395,none).
_req(cldp4397,none).
_req(cldp4V90,none).
_req(cldp4V96,none).
_req(cldp4V98,none).
_req(cldp4V99,none).
_req(comm1320,none).
_req(comm1321,none).
_req(comm2311,none).
_req(comm2313,none).
_req(comm2314,none).
_req(comm2317,none).
_req(comm2V71,none).
_req(comm3300,none).
_req(comm3301,none).
_req(comm3311,none).
_req(comm3320,none).
_req(comm3338,none).
_req(comm3342,none).
_req(comm3351,none).
_req(comm3352,none).
_req(comm4313,none).
_req(comm4314,none).
_req(comm4340,none).
_req(comm4350,none).
_req(comm4351,none).
_req(comm4360,none).
_req(comm4370,none).
_req(comm4371,none).
_req(comm4375,none).
_req(comm4V71,none).
_req(cosc1136,none).
_req(cosc1336,none).
_req(cosc1337,none).
_req(cosc2336,none).
_req(crij1301,none).
_req(crij1306,none).
_req(crij1307,none).
_req(crij1310,none).
_req(crij1313,none).
_req(crij2313,none).
_req(crij2328,none).
_req(crim2306,none).
_req(crim2308,none).
_req(crim2313,none).
_req(crim2316,none).
_req(crim2317,none).
_req(crim3300,none).
_req(crim3301,none).
_req(crim3302,none).
_req(crim3303,none).
_req(crim3304,none).
_req(crim3307,none).
_req(crim3309,none).
_req(crim3310,none).
_req(crim3311,none).
_req(crim3312,none).
_req(crim3319,none).
_req(crim3320,none).
_req(crim3323,none).
_req(crim3324,none).
_req(crim3325,none).
_req(crim3326,none).
_req(crim3327,none).
_req(crim4311,none).
_req(crim4315,none).
_req(crim4322,none).
_req(crim4323,none).
_req(crim4324,none).
_req(crim4336,none).
_req(crim4337,none).
_req(crim4396,none).
_req(crim4V97,none).
_req(crim4V98,none).
_req(crim4V99,none).
_req(crwt2301,none).
_req(crwt2V71,none).
_req(crwt3307,none).
_req(crwt3308,none).
_req(crwt3351,none).
_req(crwt3360,none).
_req(crwt4307,none).
_req(crwt4353,none).
_req(crwt4354,none).
_req(crwt4V71,none).
_req(cs1134,none).
_req(cs1136,none).
_req(cs1200,none).
_req(cs1324,none).
_req(cs1325,none).
_req(cs1334,none).
_req(cs1336,none).
_req(cs1337,none).
_req(cs2110,none).
_req(cs2305,none).
_req(cs2310,none).
_req(cs2336,none).
_req(cs2V95,none).
_req(cs3149,none).
_req(cs3162,none).
_req(cs3305,none).
_req(cs3333,none).
_req(cs3335,none).
_req(cs3340,none).
_req(cs3341,none).
_req(cs3345,none).
_req(cs3354,none).
_req(cs3376,none).
_req(cs3385,none).
_req(cs3V95,none).
_req(cs4141,none).
_req(cs4314,none).
_req(cs4315,none).
_req(cs4332,none).
_req(cs4334,none).
_req(cs4336,none).
_req(cs4337,none).
_req(cs4341,none).
_req(cs4347,none).
_req(cs4348,none).
_req(cs4349,none).
_req(cs4353,none).
_req(cs4361,none).
_req(cs4365,none).
_req(cs4375,none).
_req(cs4376,none).
_req(cs4384,none).
_req(cs4386,none).
_req(cs4389,none).
_req(cs4390,none).
_req(cs4391,none).
_req(cs4392,none).
_req(cs4393,none).
_req(cs4394,none).
_req(cs4395,none).
_req(cs4396,none).
_req(cs4397,none).
_req(cs4398,none).
_req(cs4399,none).
_req(cs4485,none).
_req(cs4V95,none).
_req(cs4V98,none).
_req(danc1341,none).
_req(danc1345,none).
_req(danc1347,none).
_req(danc2311,none).
_req(danc2321,none).
_req(danc2331,none).
_req(danc2332,none).
_req(danc2333,none).
_req(danc2334,none).
_req(danc2336,none).
_req(danc2V71,none).
_req(danc3332,none).
_req(danc3333,none).
_req(danc3334,none).
_req(danc3335,none).
_req(danc3340,none).
_req(danc3342,none).
_req(danc3345,none).
_req(danc3347,none).
_req(danc4313,none).
_req(danc4314,none).
_req(danc4315,none).
_req(danc4316,none).
_req(danc4317,none).
_req(danc4318,none).
_req(danc4V71,none).
_req(dram1351,none).
_req(dram1352,none).
_req(dram2311,none).
_req(dram2350,none).
_req(dram2364,none).
_req(dram2371,none).
_req(dram2372,none).
_req(dram2373,none).
_req(dram2V71,none).
_req(dram3310,none).
_req(dram3324,none).
_req(dram3325,none).
_req(dram3342,none).
_req(dram3351,none).
_req(dram3356,none).
_req(dram3372,none).
_req(dram3380,none).
_req(dram4301,none).
_req(dram4310,none).
_req(dram4342,none).
_req(dram4V71,none).
_req(econ2001,none).
_req(econ2302,none).
_req(econ3304,none).
_req(econ3305,none).
_req(econ3310,none).
_req(econ3311,none).
_req(econ3312,none).
_req(econ3315,none).
_req(econ3330,none).
_req(econ3332,none).
_req(econ3335,none).
_req(econ3336,none).
_req(econ3337,none).
_req(econ3369,none).
_req(econ3381,none).
_req(econ4301,none).
_req(econ4302,none).
_req(econ4310,none).
_req(econ4320,none).
_req(econ4330,none).
_req(econ4332,none).
_req(econ4333,none).
_req(econ4334,none).
_req(econ4336,none).
_req(econ4340,none).
_req(econ4342,none).
_req(econ4345,none).
_req(econ4346,none).
_req(econ4348,none).
_req(econ4351,none).
_req(econ4355,none).
_req(econ4360,none).
_req(econ4362,none).
_req(econ4370,none).
_req(econ4381,none).
_req(econ4382,none).
_req(econ4385,none).
_req(econ4396,none).
_req(econ4V97,none).
_req(econ4V98,none).
_req(econ4V99,none).
_req(ecs1100,none).
_req(ecs1200,none).
_req(ecs3301,none).
_req(ecs3310,none).
_req(ecs3390,none).
_req(ecsc2100,none).
_req(ecsc3177,none).
_req(ecsc3179,none).
_req(ecsc4100,none).
_req(ecsc4300,none).
_req(ecsc4378,none).
_req(ed3314,none).
_req(ed3315,none).
_req(ed3339,none).
_req(ed3340,none).
_req(ed3342,none).
_req(ed3345,none).
_req(ed3370,none).
_req(ed3371,none).
_req(ed3380,none).
_req(ed3382,none).
_req(ed4343,none).
_req(ed4344,none).
_req(ed4345,none).
_req(ed4351,none).
_req(ed4352,none).
_req(ed4353,none).
_req(ed4357,none).
_req(ed4358,none).
_req(ed4359,none).
_req(ed4361,none).
_req(ed4362,none).
_req(ed4363,none).
_req(ed4370,none).
_req(ed4372,none).
_req(ed4693,none).
_req(ed4694,none).
_req(ed4696,none).
_req(ed4V90,none).
_req(ed4V95,none).
_req(ee1100,none).
_req(ee1202,none).
_req(ee2310,none).
_req(ee2V99,none).
_req(ee3101,none).
_req(ee3102,none).
_req(ee3110,none).
_req(ee3111,none).
_req(ee3120,none).
_req(ee3150,none).
_req(ee3301,none).
_req(ee3302,none).
_req(ee3310,none).
_req(ee3311,none).
_req(ee3320,none).
_req(ee3350,none).
_req(ee4168,none).
_req(ee4301,none).
_req(ee4302,none).
_req(ee4304,none).
_req(ee4310,none).
_req(ee4325,none).
_req(ee4330,none).
_req(ee4340,none).
_req(ee4341,none).
_req(ee4342,none).
_req(ee4360,none).
_req(ee4361,none).
_req(ee4362,none).
_req(ee4363,none).
_req(ee4365,none).
_req(ee4367,none).
_req(ee4368,none).
_req(ee4370,none).
_req(ee4371,none).
_req(ee4388,none).
_req(ee4389,none).
_req(ee4390,none).
_req(ee4391,none).
_req(ee4392,none).
_req(ee4399,none).
_req(ee4V95,none).
_req(ee4V97,none).
_req(ee4V98,none).
_req(emac2321,none).
_req(emac2322,none).
_req(emac2323,none).
_req(emac2330,none).
_req(emac3300,none).
_req(emac3326,none).
_req(emac3328,none).
_req(emac3335,none).
_req(emac3343,none).
_req(emac3350,none).
_req(emac4314,none).
_req(emac4325,none).
_req(emac4326,none).
_req(emac4335,none).
_req(emac4350,none).
_req(emac4372,none).
_req(emac4380,none).
_req(emac4399,none).
_req(emac4V71,none).
_req(emac4V99,none).
_req(engl1302,none).
_req(engr2300,none).
_req(engr2301,none).
_req(engr2302,none).
_req(engr2332,none).
_req(engr3300,none).
_req(engr3341,none).
_req(engr4334,none).
_req(engr4343,none).
_req(engy3300,none).
_req(engy3330,none).
_req(engy3340,none).
_req(engy4300,none).
_req(engy4313,none).
_req(entp3301,none).
_req(entp3320,none).
_req(entp3321,none).
_req(entp3322,none).
_req(entp3323,none).
_req(entp3360,none).
_req(entp4090,none).
_req(entp4311,none).
_req(entp4320,none).
_req(entp4330,none).
_req(entp4340,none).
_req(entp4350,none).
_req(entp4360,none).
_req(entp4V00,none).
_req(entp4V90,none).
_req(epps1110,none).
_req(epps2301,none).
_req(epps2302,none).
_req(epps2303,none).
_req(epps2305,none).
_req(epps3301,none).
_req(epps3305,none).
_req(epps3405,none).
_req(epps4301,none).
_req(film2V71,none).
_req(film3325,none).
_req(film3342,none).
_req(film4V71,none).
_req(fin3100,none).
_req(fin3300,none).
_req(fin3305,none).
_req(fin3320,none).
_req(fin3330,none).
_req(fin3340,none).
_req(fin3350,none).
_req(fin3360,none).
_req(fin3365,none).
_req(fin3370,none).
_req(fin3380,none).
_req(fin3390,none).
_req(fin4080,none).
_req(fin4300,none).
_req(fin4310,none).
_req(fin4313,none).
_req(fin4315,none).
_req(fin4320,none).
_req(fin4321,none).
_req(fin4328,none).
_req(fin4330,none).
_req(fin4331,none).
_req(fin4332,none).
_req(fin4333,none).
_req(fin4334,none).
_req(fin4335,none).
_req(fin4337,none).
_req(fin4340,none).
_req(fin4345,none).
_req(fin4350,none).
_req(fin4360,none).
_req(fin4380,none).
_req(fin4390,none).
_req(fin4399,none).
_req(fin4V80,none).
_req(fin4V90,none).
_req(fren1311,none).
_req(fren1312,none).
_req(fren2311,none).
_req(fren2312,none).
_req(geog1304,none).
_req(geog3304,none).
_req(geog3331,none).
_req(geog3357,none).
_req(geog3359,none).
_req(geog3370,none).
_req(geog3372,none).
_req(geog3377,none).
_req(geog3382,none).
_req(geog4309,none).
_req(geog4380,none).
_req(geog4396,none).
_req(geog4V97,none).
_req(geog4V98,none).
_req(geog4V99,none).
_req(geol1103,none).
_req(geol1104,none).
_req(geol1303,none).
_req(geol1304,none).
_req(geol1305,none).
_req(geol1345,none).
_req(geol1347,none).
_req(geol2409,none).
_req(geos1103,none).
_req(geos1104,none).
_req(geos2301,none).
_req(geos2305,none).
_req(geos2306,none).
_req(geos2324,none).
_req(geos2328,none).
_req(geos2406,none).
_req(geos2V08,none).
_req(geos3110,none).
_req(geos3121,none).
_req(geos3122,none).
_req(geos3123,none).
_req(geos3124,none).
_req(geos3125,none).
_req(geos3126,none).
_req(geos3127,none).
_req(geos3128,none).
_req(geos3300,none).
_req(geos3304,none).
_req(geos3310,none).
_req(geos3321,none).
_req(geos3331,none).
_req(geos3332,none).
_req(geos3401,none).
_req(geos3421,none).
_req(geos3432,none).
_req(geos3434,none).
_req(geos3464,none).
_req(geos3470,none).
_req(geos4300,none).
_req(geos4320,none).
_req(geos4322,none).
_req(geos4325,none).
_req(geos4369,none).
_req(geos4390,none).
_req(geos4395,none).
_req(geos4399,none).
_req(geos4430,none).
_req(geos4V08,none).
_req(geos4V09,none).
_req(geos4V80,none).
_req(germ1311,none).
_req(germ1312,none).
_req(germ2311,none).
_req(germ2312,none).
_req(gisc2301,none).
_req(gisc2302,none).
_req(gisc2305,none).
_req(gisc3304,none).
_req(gisc4101,none).
_req(gisc4310,none).
_req(gisc4317,none).
_req(gisc4325,none).
_req(gisc4326,none).
_req(gisc4380,none).
_req(gisc4382,none).
_req(gisc4384,none).
_req(gisc4385,none).
_req(gisc4386,none).
_req(gisc4V96,none).
_req(gisc4V97,none).
_req(gisc4V98,none).
_req(gisc4V99,none).
_req(govt2107,none).
_req(govt2301,none).
_req(govt2302,none).
_req(gst2311,none).
_req(gst2312,none).
_req(gst2V90,none).
_req(gst3301,none).
_req(gst3302,none).
_req(gst3303,none).
_req(gst4311,none).
_req(gst4325,none).
_req(gst4360,none).
_req(gst4379,none).
_req(gst4380,none).
_req(gst4381,none).
_req(gst4382,none).
_req(gst4V80,none).
_req(hist2331,none).
_req(hist2V71,none).
_req(hist3301,none).
_req(hist3302,none).
_req(hist3312,none).
_req(hist3313,none).
_req(hist3314,none).
_req(hist3315,none).
_req(hist3316,none).
_req(hist3317,none).
_req(hist3318,none).
_req(hist3319,none).
_req(hist3320,none).
_req(hist3324,none).
_req(hist3327,none).
_req(hist3331,none).
_req(hist3332,none).
_req(hist3333,none).
_req(hist3334,none).
_req(hist3336,none).
_req(hist3344,none).
_req(hist3351,none).
_req(hist3352,none).
_req(hist3355,none).
_req(hist3358,none).
_req(hist3360,none).
_req(hist3364,none).
_req(hist3365,none).
_req(hist3366,none).
_req(hist3367,none).
_req(hist3369,none).
_req(hist3370,none).
_req(hist3376,none).
_req(hist3377,none).
_req(hist3379,none).
_req(hist3380,none).
_req(hist3382,none).
_req(hist3384,none).
_req(hist3386,none).
_req(hist3387,none).
_req(hist3389,none).
_req(hist3390,none).
_req(hist3391,none).
_req(hist3392,none).
_req(hist3394,none).
_req(hist3395,none).
_req(hist3396,none).
_req(hist3398,none).
_req(hist3399,none).
_req(hist4330,none).
_req(hist4331,none).
_req(hist4332,none).
_req(hist4336,none).
_req(hist4339,none).
_req(hist4344,none).
_req(hist4345,none).
_req(hist4346,none).
_req(hist4349,none).
_req(hist4356,none).
_req(hist4357,none).
_req(hist4358,none).
_req(hist4359,none).
_req(hist4360,none).
_req(hist4368,none).
_req(hist4376,none).
_req(hist4377,none).
_req(hist4378,none).
_req(hist4380,none).
_req(hist4V71,none).
_req(hist4V99,none).
_req(hlth1100,none).
_req(hlth1301,none).
_req(hlth1322,none).
_req(hlth3101,none).
_req(hlth3300,none).
_req(hlth3301,none).
_req(hlth3305,none).
_req(hlth3306,none).
_req(hlth3310,none).
_req(hlth3315,none).
_req(hlth4108,none).
_req(hlth4304,none).
_req(hlth4305,none).
_req(hlth4380,none).
_req(hlth4V01,none).
_req(hmgt3100,none).
_req(hmgt3301,none).
_req(hmgt3310,none).
_req(hmgt3311,none).
_req(hmgt4090,none).
_req(hmgt4301,none).
_req(hmgt4321,none).
_req(hmgt4331,none).
_req(hmgt4341,none).
_req(hmgt4351,none).
_req(hmgt4392,none).
_req(hmgt4V90,none).
_req(hons3199,none).
_req(hons4V96,none).
_req(hons4V97,none).
_req(huma3300,none).
_req(huma3342,none).
_req(huma3350,none).
_req(huma3351,none).
_req(huma4V71,none).
_req(ims3091,none).
_req(ims3092,none).
_req(ims3093,none).
_req(ims3094,none).
_req(ims3095,none).
_req(ims3096,none).
_req(ims3100,none).
_req(ims3310,none).
_req(ims3V91,none).
_req(ims3V92,none).
_req(ims3V93,none).
_req(ims3V94,none).
_req(ims3V95,none).
_req(ims3V96,none).
_req(ims4090,none).
_req(ims4310,none).
_req(ims4320,none).
_req(ims4325,none).
_req(ims4330,none).
_req(ims4332,none).
_req(ims4334,none).
_req(ims4373,none).
_req(ims4V81,none).
_req(ims4V90,none).
_req(ims4V94,none).
_req(ipec3349,none).
_req(ipec4301,none).
_req(ipec4302,none).
_req(ipec4303,none).
_req(ipec4304,none).
_req(ipec4305,none).
_req(ipec4307,none).
_req(ipec4308,none).
_req(ipec4309,none).
_req(ipec4310,none).
_req(ipec4375,none).
_req(ipec4376,none).
_req(ipec4377,none).
_req(ipec4384,none).
_req(ipec4396,none).
_req(ipec4V91,none).
_req(ipec4V97,none).
_req(ipec4V98,none).
_req(ipec4V99,none).
_req(isae2121,none).
_req(isae4V50,none).
_req(isah2130,none).
_req(isah3130,none).
_req(isah3131,none).
_req(isah4V50,none).
_req(isah4V88,none).
_req(isec4102,none).
_req(isec4201,none).
_req(isec4395,none).
_req(isec4V87,none).
_req(isis3305,none).
_req(isis3306,none).
_req(isis3308,none).
_req(isis3309,none).
_req(isis3310,none).
_req(isis3312,none).
_req(isis3315,none).
_req(isis3335,none).
_req(isis3338,none).
_req(isis3350,none).
_req(isis3390,none).
_req(isis3V70,none).
_req(isis4301,none).
_req(isis4302,none).
_req(isis4303,none).
_req(isis4309,none).
_req(isis4350,none).
_req(isis4V89,none).
_req(isns3359,none).
_req(isns3367,none).
_req(isns3368,none).
_req(isns3371,none).
_req(isns3373,none).
_req(iso9000,none).
_req(isss3349,none).
_req(isss4320,none).
_req(isss4358,none).
_req(isss4359,none).
_req(isss4377,none).
_req(isss4V86,none).
_req(isss4V97,none).
_req(itss3100,none).
_req(itss3211,none).
_req(itss3300,none).
_req(itss3310,none).
_req(itss3312,none).
_req(itss3390,none).
_req(itss4090,none).
_req(itss4300,none).
_req(itss4301,none).
_req(itss4312,none).
_req(itss4320,none).
_req(itss4330,none).
_req(itss4340,none).
_req(itss4342,none).
_req(itss4343,none).
_req(itss4351,none).
_req(itss4352,none).
_req(itss4353,none).
_req(itss4354,none).
_req(itss4355,none).
_req(itss4360,none).
_req(itss4370,none).
_req(itss4380,none).
_req(itss4390,none).
_req(itss4V81,none).
_req(itss4V90,none).
_req(itss4V95,none).
_req(japn1311,none).
_req(japn1312,none).
_req(japn2311,none).
_req(japn2312,none).
_req(japn3311,none).
_req(japn3312,none).
_req(lang1311,none).
_req(lang1312,none).
_req(lang2311,none).
_req(lang2312,none).
_req(lang2342,none).
_req(lang2V42,none).
_req(lang2V71,none).
_req(lang3342,none).
_req(lang3348,none).
_req(lang4348,none).
_req(lang4V71,none).
_req(lit2341,none).
_req(lit2V71,none).
_req(lit3300,none).
_req(lit3304,none).
_req(lit3309,none).
_req(lit3310,none).
_req(lit3311,none).
_req(lit3312,none).
_req(lit3313,none).
_req(lit3314,none).
_req(lit3315,none).
_req(lit3317,none).
_req(lit3318,none).
_req(lit3319,none).
_req(lit3320,none).
_req(lit3321,none).
_req(lit3322,none).
_req(lit3323,none).
_req(lit3324,none).
_req(lit3325,none).
_req(lit3326,none).
_req(lit3327,none).
_req(lit3328,none).
_req(lit3329,none).
_req(lit3330,none).
_req(lit3331,none).
_req(lit3332,none).
_req(lit3335,none).
_req(lit3339,none).
_req(lit3340,none).
_req(lit3343,none).
_req(lit3344,none).
_req(lit3380,none).
_req(lit3381,none).
_req(lit3382,none).
_req(lit3383,none).
_req(lit3385,none).
_req(lit4329,none).
_req(lit4330,none).
_req(lit4344,none).
_req(lit4346,none).
_req(lit4348,none).
_req(lit4V71,none).
_req(lit4V99,none).
_req(math1326,none).
_req(math1342,none).
_req(math2305,none).
_req(math2333,none).
_req(math2370,none).
_req(math2399,none).
_req(math2418,none).
_req(math2419,none).
_req(math2420,none).
_req(math2451,none).
_req(math2V90,none).
_req(math3301,none).
_req(math3303,none).
_req(math3305,none).
_req(math3307,none).
_req(math3310,none).
_req(math3311,none).
_req(math3312,none).
_req(math3321,none).
_req(math3323,none).
_req(math3379,none).
_req(math3380,none).
_req(math4301,none).
_req(math4302,none).
_req(math4332,none).
_req(math4334,none).
_req(math4341,none).
_req(math4355,none).
_req(math4362,none).
_req(math4381,none).
_req(math4390,none).
_req(math4399,none).
_req(math4V03,none).
_req(math4V91,none).
_req(mech1100,none).
_req(mech1208,none).
_req(mech1V95,none).
_req(mech2120,none).
_req(mech2310,none).
_req(mech2320,none).
_req(mech2330,none).
_req(mech2V95,none).
_req(mech3105,none).
_req(mech3115,none).
_req(mech3120,none).
_req(mech3150,none).
_req(mech3301,none).
_req(mech3305,none).
_req(mech3310,none).
_req(mech3315,none).
_req(mech3320,none).
_req(mech3350,none).
_req(mech3351,none).
_req(mech3360,none).
_req(mech3370,none).
_req(mech3V95,none).
_req(mech4110,none).
_req(mech4301,none).
_req(mech4310,none).
_req(mech4320,none).
_req(mech4330,none).
_req(mech4340,none).
_req(mech4350,none).
_req(mech4360,none).
_req(mech4370,none).
_req(mech4380,none).
_req(mech4381,none).
_req(mech4382,none).
_req(mech4399,none).
_req(mech4V95,none).
_req(mech4V98,none).
_req(meco3300,none).
_req(meco3330,none).
_req(meco3340,none).
_req(meco4300,none).
_req(meco4342,none).
_req(meco4351,none).
_req(meco4352,none).
_req(mis3100,none).
_req(mis3300,none).
_req(mis3310,none).
_req(mis3320,none).
_req(mis4090,none).
_req(mis4300,none).
_req(mis4301,none).
_req(mis4310,none).
_req(mis4312,none).
_req(mis4320,none).
_req(mis4330,none).
_req(mis4340,none).
_req(mis4342,none).
_req(mis4343,none).
_req(mis4350,none).
_req(mis4351,none).
_req(mis4352,none).
_req(mis4360,none).
_req(mis4361,none).
_req(mis4370,none).
_req(mis4390,none).
_req(mis4V81,none).
_req(mis4V90,none).
_req(mis4V95,none).
_req(mkt3100,none).
_req(mkt3300,none).
_req(mkt3320,none).
_req(mkt3330,none).
_req(mkt3340,none).
_req(mkt3V92,none).
_req(mkt4090,none).
_req(mkt4320,none).
_req(mkt4321,none).
_req(mkt4322,none).
_req(mkt4330,none).
_req(mkt4331,none).
_req(mkt4332,none).
_req(mkt4333,none).
_req(mkt4334,none).
_req(mkt4335,none).
_req(mkt4336,none).
_req(mkt4337,none).
_req(mkt4338,none).
_req(mkt4340,none).
_req(mkt4350,none).
_req(mkt4351,none).
_req(mkt4360,none).
_req(mkt4370,none).
_req(mkt4380,none).
_req(mkt4V83,none).
_req(mkt4V90,none).
_req(mkt4V93,none).
_req(musi1313,none).
_req(musi2113,none).
_req(musi2120,none).
_req(musi2127,none).
_req(musi2311,none).
_req(musi2315,none).
_req(musi2316,none).
_req(musi2317,none).
_req(musi2319,none).
_req(musi2320,none).
_req(musi2322,none).
_req(musi2324,none).
_req(musi2325,none).
_req(musi2326,none).
_req(musi2327,none).
_req(musi2328,none).
_req(musi2V71,none).
_req(musi3118,none).
_req(musi3120,none).
_req(musi3312,none).
_req(musi3316,none).
_req(musi3318,none).
_req(musi3320,none).
_req(musi3323,none).
_req(musi3324,none).
_req(musi3325,none).
_req(musi3328,none).
_req(musi3342,none).
_req(musi3380,none).
_req(musi3381,none).
_req(musi3382,none).
_req(musi3384,none).
_req(musi3385,none).
_req(musi3386,none).
_req(musi3387,none).
_req(musi3388,none).
_req(musi3389,none).
_req(musi4118,none).
_req(musi4120,none).
_req(musi4312,none).
_req(musi4316,none).
_req(musi4318,none).
_req(musi4320,none).
_req(musi4345,none).
_req(musi4346,none).
_req(musi4347,none).
_req(musi4348,none).
_req(musi4349,none).
_req(musi4385,none).
_req(musi4386,none).
_req(musi4390,none).
_req(musi4V12,none).
_req(musi4V13,none).
_req(musi4V61,none).
_req(musi4V71,none).
_req(nano3301,none).
_req(nano3302,none).
_req(nano3310,none).
_req(nano4391,none).
_req(nano4V95,none).
_req(nats1101,none).
_req(nats1111,none).
_req(nats1141,none).
_req(nats1143,none).
_req(nats2V10,none).
_req(nats3301,none).
_req(nats3327,none).
_req(nats3330,none).
_req(nats3331,none).
_req(nats3341,none).
_req(nats3343,none).
_req(nats4141,none).
_req(nats4310,none).
_req(nats4341,none).
_req(nats4390,none).
_req(nats4694,none).
_req(nats4696,none).
_req(nats4V41,none).
_req(nats4V90,none).
_req(nsc1100,none).
_req(nsc3344,none).
_req(nsc3345,none).
_req(nsc3361,none).
_req(nsc4188,none).
_req(nsc4350,none).
_req(nsc4351,none).
_req(nsc4352,none).
_req(nsc4353,none).
_req(nsc4354,none).
_req(nsc4355,none).
_req(nsc4356,none).
_req(nsc4357,none).
_req(nsc4358,none).
_req(nsc4359,none).
_req(nsc4362,none).
_req(nsc4363,none).
_req(nsc4364,none).
_req(nsc4365,none).
_req(nsc4366,none).
_req(nsc4367,none).
_req(nsc4370,none).
_req(nsc4371,none).
_req(nsc4372,none).
_req(nsc4373,none).
_req(nsc4374,none).
_req(nsc4375,none).
_req(nsc4376,none).
_req(nsc4378,none).
_req(nsc4385,none).
_req(nsc4386,none).
_req(nsc4387,none).
_req(nsc4388,none).
_req(nsc4389,none).
_req(nsc4394,none).
_req(nsc4397,none).
_req(nsc4V90,none).
_req(nsc4V91,none).
_req(nsc4V95,none).
_req(nsc4V96,none).
_req(nsc4V98,none).
_req(nsc4V99,none).
_req(obhr3300,none).
_req(obhr3310,none).
_req(obhr3311,none).
_req(obhr3320,none).
_req(obhr3330,none).
_req(obhr4090,none).
_req(obhr4300,none).
_req(obhr4310,none).
_req(obhr4331,none).
_req(obhr4333,none).
_req(obhr4334,none).
_req(obhr4350,none).
_req(obhr4352,none).
_req(obhr4354,none).
_req(obhr4356,none).
_req(obhr4358,none).
_req(obhr4360,none).
_req(obhr4V84,none).
_req(obhr4V90,none).
_req(obhr4V94,none).
_req(opre3100,none).
_req(opre3310,none).
_req(opre3320,none).
_req(opre3330,none).
_req(opre3333,none).
_req(opre3360,none).
_req(opre4090,none).
_req(opre4310,none).
_req(opre4320,none).
_req(opre4330,none).
_req(opre4340,none).
_req(opre4350,none).
_req(opre4360,none).
_req(opre4V81,none).
_req(opre4V90,none).
_req(opre4V91,none).
_req(pa3304,none).
_req(pa3306,none).
_req(pa3310,none).
_req(pa3314,none).
_req(pa3333,none).
_req(pa3377,none).
_req(pa3378,none).
_req(pa3379,none).
_req(pa3380,none).
_req(pa3381,none).
_req(pa3382,none).
_req(pa4340,none).
_req(pa4345,none).
_req(pa4350,none).
_req(pa4351,none).
_req(pa4352,none).
_req(pa4355,none).
_req(pa4360,none).
_req(pa4370,none).
_req(pa4386,none).
_req(pa4387,none).
_req(pa4396,none).
_req(pa4V97,none).
_req(pa4V98,none).
_req(pa4V99,none).
_req(phil2V71,none).
_req(phil3304,none).
_req(phil3328,none).
_req(phil3373,none).
_req(phil3375,none).
_req(phil3392,none).
_req(phil4305,none).
_req(phil4308,none).
_req(phil4310,none).
_req(phil4320,none).
_req(phil4321,none).
_req(phil4380,none).
_req(phil4V71,none).
_req(phin1100,none).
_req(phin1102,none).
_req(phin1103,none).
_req(phin1104,none).
_req(phin1106,none).
_req(phin1107,none).
_req(phin1108,none).
_req(phin1111,none).
_req(phin1120,none).
_req(phin1121,none).
_req(phin1122,none).
_req(phin1129,none).
_req(phin1130,none).
_req(phin2102,none).
_req(phin2120,none).
_req(phin2125,none).
_req(phin2150,none).
_req(phin2151,none).
_req(phin2152,none).
_req(phin2153,none).
_req(phin2154,none).
_req(phys1100,none).
_req(phys1101,none).
_req(phys1102,none).
_req(phys2121,none).
_req(phys2126,none).
_req(phys2303,none).
_req(phys3311,none).
_req(phys3312,none).
_req(phys3317,none).
_req(phys3327,none).
_req(phys3330,none).
_req(phys3380,none).
_req(phys3411,none).
_req(phys3416,none).
_req(phys4301,none).
_req(phys4302,none).
_req(phys4311,none).
_req(phys4319,none).
_req(phys4328,none).
_req(phys4335,none).
_req(phys4352,none).
_req(phys4371,none).
_req(phys4373,none).
_req(phys4381,none).
_req(phys4383,none).
_req(phys4386,none).
_req(phys4390,none).
_req(phys4392,none).
_req(phys4395,none).
_req(phys4398,none).
_req(phys4399,none).
_req(phys4V07,none).
_req(phys4V10,none).
_req(phys4V11,none).
_req(ppol4300,none).
_req(ppol4301,none).
_req(ppol4302,none).
_req(ppol4303,none).
_req(ppol4396,none).
_req(ppol4398,none).
_req(ppol4V91,none).
_req(ppol4V96,none).
_req(ppol4V99,none).
_req(psci3301,none).
_req(psci3303,none).
_req(psci3306,none).
_req(psci3310,none).
_req(psci3322,none).
_req(psci3323,none).
_req(psci3325,none).
_req(psci3326,none).
_req(psci3327,none).
_req(psci3328,none).
_req(psci3333,none).
_req(psci3340,none).
_req(psci3350,none).
_req(psci3351,none).
_req(psci3353,none).
_req(psci3355,none).
_req(psci3362,none).
_req(psci3364,none).
_req(psci4301,none).
_req(psci4302,none).
_req(psci4304,none).
_req(psci4305,none).
_req(psci4307,none).
_req(psci4311,none).
_req(psci4312,none).
_req(psci4313,none).
_req(psci4314,none).
_req(psci4315,none).
_req(psci4316,none).
_req(psci4321,none).
_req(psci4326,none).
_req(psci4329,none).
_req(psci4330,none).
_req(psci4331,none).
_req(psci4332,none).
_req(psci4341,none).
_req(psci4342,none).
_req(psci4343,none).
_req(psci4344,none).
_req(psci4345,none).
_req(psci4346,none).
_req(psci4347,none).
_req(psci4348,none).
_req(psci4349,none).
_req(psci4352,none).
_req(psci4354,none).
_req(psci4356,none).
_req(psci4357,none).
_req(psci4359,none).
_req(psci4360,none).
_req(psci4363,none).
_req(psci4364,none).
_req(psci4365,none).
_req(psci4368,none).
_req(psci4370,none).
_req(psci4372,none).
_req(psci4373,none).
_req(psci4374,none).
_req(psci4375,none).
_req(psci4376,none).
_req(psci4377,none).
_req(psci4378,none).
_req(psci4382,none).
_req(psci4396,none).
_req(psci4398,none).
_req(psci4V65,none).
_req(psci4V66,none).
_req(psci4V67,none).
_req(psci4V76,none).
_req(psci4V97,none).
_req(psci4V98,none).
_req(psci4V99,none).
_req(psy1100,none).
_req(psy3100,none).
_req(psy3310,none).
_req(psy3322,none).
_req(psy3324,none).
_req(psy3331,none).
_req(psy3332,none).
_req(psy3333,none).
_req(psy3336,none).
_req(psy3338,none).
_req(psy3339,none).
_req(psy3342,none).
_req(psy3350,none).
_req(psy3351,none).
_req(psy3355,none).
_req(psy3356,none).
_req(psy3360,none).
_req(psy3361,none).
_req(psy3362,none).
_req(psy3363,none).
_req(psy3364,none).
_req(psy3366,none).
_req(psy3392,none).
_req(psy3393,none).
_req(psy3490,none).
_req(psy4188,none).
_req(psy4323,none).
_req(psy4324,none).
_req(psy4325,none).
_req(psy4327,none).
_req(psy4328,none).
_req(psy4331,none).
_req(psy4332,none).
_req(psy4333,none).
_req(psy4334,none).
_req(psy4343,none).
_req(psy4344,none).
_req(psy4345,none).
_req(psy4346,none).
_req(psy4347,none).
_req(psy4359,none).
_req(psy4362,none).
_req(psy4364,none).
_req(psy4365,none).
_req(psy4370,none).
_req(psy4372,none).
_req(psy4373,none).
_req(psy4374,none).
_req(psy4375,none).
_req(psy4377,none).
_req(psy4378,none).
_req(psy4385,none).
_req(psy4386,none).
_req(psy4389,none).
_req(psy4393,none).
_req(psy4394,none).
_req(psy4395,none).
_req(psy4397,none).
_req(psy4V90,none).
_req(psy4V91,none).
_req(psy4V96,none).
_req(psy4V98,none).
_req(psy4V99,none).
_req(psyc2301,none).
_req(psyc2314,none).
_req(psyc2317,none).
_req(real3305,none).
_req(real3365,none).
_req(real4090,none).
_req(real4321,none).
_req(real4328,none).
_req(real4365,none).
_req(real4V80,none).
_req(real4V90,none).
_req(rhet2302,none).
_req(rhet3302,none).
_req(rhet3303,none).
_req(rhet4302,none).
_req(rhet4303,none).
_req(rmis3370,none).
_req(rmis4331,none).
_req(rmis4332,none).
_req(rmis4333,none).
_req(rmis4334,none).
_req(se2V95,none).
_req(se3162,none).
_req(se3306,none).
_req(se3340,none).
_req(se3341,none).
_req(se3345,none).
_req(se3354,none).
_req(se3376,none).
_req(se3V95,none).
_req(se4347,none).
_req(se4348,none).
_req(se4351,none).
_req(se4352,none).
_req(se4367,none).
_req(se4376,none).
_req(se4381,none).
_req(se4399,none).
_req(se4485,none).
_req(se4V95,none).
_req(se4V98,none).
_req(soc2303,none).
_req(soc2305,none).
_req(soc2319,none).
_req(soc2323,none).
_req(soc3303,none).
_req(soc3304,none).
_req(soc3305,none).
_req(soc3306,none).
_req(soc3314,none).
_req(soc3315,none).
_req(soc3321,none).
_req(soc3322,none).
_req(soc3325,none).
_req(soc3331,none).
_req(soc3333,none).
_req(soc3334,none).
_req(soc3336,none).
_req(soc3337,none).
_req(soc3338,none).
_req(soc3339,none).
_req(soc3341,none).
_req(soc3342,none).
_req(soc3343,none).
_req(soc3344,none).
_req(soc3346,none).
_req(soc3347,none).
_req(soc3352,none).
_req(soc3354,none).
_req(soc3363,none).
_req(soc3379,none).
_req(soc3381,none).
_req(soc3382,none).
_req(soc4302,none).
_req(soc4306,none).
_req(soc4337,none).
_req(soc4352,none).
_req(soc4355,none).
_req(soc4356,none).
_req(soc4357,none).
_req(soc4361,none).
_req(soc4369,none).
_req(soc4370,none).
_req(soc4371,none).
_req(soc4372,none).
_req(soc4375,none).
_req(soc4377,none).
_req(soc4378,none).
_req(soc4380,none).
_req(soc4384,none).
_req(soc4385,none).
_req(soc4386,none).
_req(soc4387,none).
_req(soc4388,none).
_req(soc4389,none).
_req(soc4390,none).
_req(soc4391,none).
_req(soc4396,none).
_req(soc4V97,none).
_req(soc4V98,none).
_req(soc4V99,none).
_req(soci1301,none).
_req(soci2319,none).
_req(socs2V95,none).
_req(socs3111,none).
_req(socs3361,none).
_req(socs3V96,none).
_req(socs4320,none).
_req(socs4V98,none).
_req(span1311,none).
_req(span1312,none).
_req(span2311,none).
_req(span2312,none).
_req(span2341,none).
_req(span3340,none).
_req(span3341,none).
_req(span3363,none).
_req(span3365,none).
_req(span3366,none).
_req(span4301,none).
_req(span4302,none).
_req(span4364,none).
_req(spau1100,none).
_req(spau3301,none).
_req(spau3303,none).
_req(spau3304,none).
_req(spau3305,none).
_req(spau3340,none).
_req(spau3341,none).
_req(spau3342,none).
_req(spau3343,none).
_req(spau3344,none).
_req(spau3345,none).
_req(spau3388,none).
_req(spau3390,none).
_req(spau4188,none).
_req(spau4308,none).
_req(spau4342,none).
_req(spau4366,none).
_req(spau4367,none).
_req(spau4375,none).
_req(spau4386,none).
_req(spau4393,none).
_req(spau4394,none).
_req(spau4395,none).
_req(spau4396,none).
_req(spau4397,none).
_req(spau4V90,none).
_req(spau4V96,none).
_req(spau4V98,none).
_req(spau4V99,none).
_req(spch1311,none).
_req(spch1315,none).
_req(spch1318,none).
_req(spch1321,none).
_req(stat3103,none).
_req(stat3332,none).
_req(stat3341,none).
_req(stat3355,none).
_req(stat3360,none).
_req(stat4351,none).
_req(stat4352,none).
_req(stat4382,none).
_req(stat4V02,none).
_req(stat4V97,none).
_req(te1202,none).
_req(te1337,none).
_req(te2305,none).
_req(te2336,none).
_req(te3101,none).
_req(te3102,none).
_req(te3150,none).
_req(te3301,none).
_req(te3302,none).
_req(te3307,none).
_req(te3340,none).
_req(te3345,none).
_req(te3346,none).
_req(te3350,none).
_req(te4141,none).
_req(te4341,none).
_req(te4348,none).
_req(te4360,none).
_req(te4361,none).
_req(te4365,none).
_req(te4367,none).
_req(te4388,none).
_req(te4389,none).
_req(te4390,none).
_req(te4V95,none).
_req(te4V98,none).
_req(univ1010,none).
_req(univ1100,none).
_req(univ2010,none).
_req(univ2012,none).
_req(univ2014,none).
_req(univ2020,none).
_req(univ2V96,none).
_req(univ3010,none).
_req(univ3V98,none).
_req(univ4074,none).
_req(univ4174,none).
_req(univ4274,none).
_req(univ4395,none).
_req(univ4V96,none).
_req(univ4V97,none).
_req(univ4V98,none).
_req(viet2311,none).
