hermione
bs,nsc,2016,premed
comm1311,rhet1302,math2414,chem1311,biol2111,biol2281,biol2311,chem1111,chem1112,chem1312,govt2305,govt2306,ahst1303,huma1301,nsc3361,nsc4352,nsc4353,nsc4354,nsc4356,nsc4363,nsc4366,psy2301,hist1301,hist1302,stat2332,nsc4357,biol2112,biol2312,chem2123,chem2125,chem2323,chem2325,biol3101,biol3301,biol3361,biol3161,phys1101,phys1102,phys1301,phys1302,nsc3345,nsc4358,nsc4367,nsc4358,nsc4367,nsc4372,nsc4373

% can graduate with premed concentration
