john
bs,nsc,2016,premed
comm1311,rhet1302,math2414,chem1311,biol2111,biol2281,biol2311,chem1111,chem1112,chem1312,govt2305,govt2306,ahst1303,huma1301,nsc3361,nsc4352,nsc4353,nsc4354,nsc4356,nsc4363,nsc4366,psy2301,hist1301,hist1302,stat2332,nsc4357

% cannot graduate with premed concentration